% %
% data is not non-dimensionalized
% y,	<u>,	<v>,	<w>,	<uu>,	<uv>,	<uw>,	<vv>,	<vw>,	<ww>,	<nuSGS>
%
0	0	0	0	0	0	0	0	0	0	0
0.00166660000000000	0.0326804000000000	-4.50991000000000e-06	-1.90663000000000e-05	0.000160743000000000	-3.22012000000000e-07	-4.10311000000000e-07	5.38529000000000e-09	-5.07945000000000e-10	2.29611000000000e-05	0.000188219000000000
0.00499980000000000	0.0674151000000000	1.46931000000000e-06	-3.63464000000000e-05	0.000451544000000000	-2.18903000000000e-06	-1.56864000000000e-06	1.03929000000000e-07	2.57834000000000e-09	8.54120000000000e-05	0.000135111000000000
0.00833300000000000	0.104663000000000	2.69774000000000e-07	-5.57489000000000e-05	0.000994899000000000	-8.16587000000000e-06	-3.50298000000000e-06	5.42873000000000e-07	7.01135000000000e-09	0.000183139000000000	0.000138975000000000
0.0116662000000000	0.141522000000000	3.03631000000000e-07	-7.52124000000000e-05	0.00173276000000000	-2.00118000000000e-05	-5.96845000000000e-06	1.61422000000000e-06	1.57775000000000e-08	0.000300888000000000	0.000137833000000000
0.0149994000000000	0.178195000000000	4.90160000000000e-07	-9.49171000000000e-05	0.00266914000000000	-3.97824000000000e-05	-8.82713000000000e-06	3.63221000000000e-06	3.16008000000000e-08	0.000431453000000000	0.000137150000000000
0.0183206000000000	0.214561000000000	3.91410000000000e-07	-0.000114762000000000	0.00379287000000000	-6.93472000000000e-05	-1.19359000000000e-05	6.91208000000000e-06	5.77217000000000e-08	0.000569147000000000	0.000134283000000000
0.0220491000000000	0.254229000000000	2.78587000000000e-07	-0.000136600000000000	0.00521776000000000	-0.000114820000000000	-1.55028000000000e-05	1.23594000000000e-05	1.01642000000000e-07	0.000725616000000000	0.000149348000000000
0.0267225000000000	0.300933000000000	1.20389000000000e-06	-0.000162316000000000	0.00710933000000000	-0.000189392000000000	-1.97168000000000e-05	2.20957000000000e-05	1.79907000000000e-07	0.000913149000000000	0.000162849000000000
0.0325806000000000	0.355516000000000	1.93359000000000e-06	-0.000191846000000000	0.00955805000000000	-0.000310004000000000	-2.44567000000000e-05	3.95163000000000e-05	3.11813000000000e-07	0.00113407000000000	0.000175898000000000
0.0399233000000000	0.418339000000000	2.82379000000000e-06	-0.000223909000000000	0.0125730000000000	-0.000496563000000000	-2.96357000000000e-05	6.99749000000000e-05	5.06646000000000e-07	0.00139131000000000	0.000187032000000000
0.0491272000000000	0.489033000000000	1.84421000000000e-06	-0.000256006000000000	0.0159973000000000	-0.000767012000000000	-3.60018000000000e-05	0.000121923000000000	7.33302000000000e-07	0.00169111000000000	0.000194513000000000
0.0606638000000000	0.565972000000000	-6.74900000000000e-06	-0.000285614000000000	0.0194077000000000	-0.00112450000000000	-4.58209000000000e-05	0.000208184000000000	9.83278000000000e-07	0.00204252000000000	0.000196426000000000
0.0751244000000000	0.645874000000000	-3.10270000000000e-05	-0.000307461000000000	0.0221160000000000	-0.00154188000000000	-5.90697000000000e-05	0.000346770000000000	1.50940000000000e-06	0.00244724000000000	0.000191626000000000
0.0932501000000000	0.723970000000000	-7.28691000000000e-05	-0.000303355000000000	0.0233725000000000	-0.00195844000000000	-6.66248000000000e-05	0.000559631000000000	2.67384000000000e-06	0.00288147000000000	0.000180944000000000
0.115970000000000	0.795041000000000	-0.000129666000000000	-0.000240649000000000	0.0227511000000000	-0.00230014000000000	-5.20810000000000e-05	0.000867720000000000	3.66291000000000e-06	0.00329867000000000	0.000167742000000000
0.144448000000000	0.855303000000000	-0.000143763000000000	-0.000120282000000000	0.0204801000000000	-0.00252830000000000	-1.35662000000000e-05	0.00127801000000000	4.35217000000000e-06	0.00366464000000000	0.000156368000000000
0.180144000000000	0.904047000000000	-0.000131831000000000	-1.97731000000000e-05	0.0174096000000000	-0.00264237000000000	1.45985000000000e-05	0.00175710000000000	4.22577000000000e-06	0.00395781000000000	0.000150776000000000
0.220000000000000	0.940950000000000	-6.96244000000000e-05	0.000153417000000000	0.0145856000000000	-0.00265119000000000	-5.51228000000000e-07	0.00216967000000000	7.55387000000000e-06	0.00411341000000000	0.000133247000000000
0.260000000000000	0.969830000000000	9.75456000000000e-06	0.000488286000000000	0.0124733000000000	-0.00259918000000000	-3.91069000000000e-05	0.00242844000000000	8.34940000000000e-06	0.00417205000000000	0.000121370000000000
0.300000000000000	0.993672000000000	4.55786000000000e-06	0.000801682000000000	0.0108470000000000	-0.00250853000000000	-8.08520000000000e-05	0.00255615000000000	8.26517000000000e-06	0.00409072000000000	0.000111860000000000
0.340000000000000	1.01404000000000	2.11997000000000e-05	0.00110278000000000	0.00957155000000000	-0.00239568000000000	-0.000116787000000000	0.00258711000000000	7.26436000000000e-06	0.00391441000000000	0.000103907000000000
0.380000000000000	1.03208000000000	1.94225000000000e-06	0.00131240000000000	0.00854171000000000	-0.00226948000000000	-0.000114661000000000	0.00255679000000000	6.35512000000000e-06	0.00371594000000000	9.69177000000000e-05
0.420000000000000	1.04840000000000	3.59850000000000e-06	0.00141987000000000	0.00768192000000000	-0.00213592000000000	-8.45797000000000e-05	0.00248753000000000	4.55192000000000e-06	0.00348810000000000	9.05556000000000e-05
0.460000000000000	1.06331000000000	9.44856000000000e-07	0.00158706000000000	0.00693826000000000	-0.00199705000000000	-7.44456000000000e-05	0.00239225000000000	4.20615000000000e-06	0.00323264000000000	8.47651000000000e-05
0.500000000000000	1.07691000000000	-3.88010000000000e-06	0.00187151000000000	0.00629585000000000	-0.00185506000000000	-8.62385000000000e-05	0.00228353000000000	3.88086000000000e-06	0.00296892000000000	7.93226000000000e-05
0.540000000000000	1.08920000000000	-8.48037000000000e-06	0.00218577000000000	0.00572960000000000	-0.00171153000000000	-9.47007000000000e-05	0.00217077000000000	2.25799000000000e-06	0.00271497000000000	7.41970000000000e-05
0.580000000000000	1.10025000000000	-5.35021000000000e-06	0.00245892000000000	0.00521102000000000	-0.00156584000000000	-9.77376000000000e-05	0.00205716000000000	1.54339000000000e-06	0.00248941000000000	6.95320000000000e-05
0.620000000000000	1.11027000000000	-6.02453000000000e-06	0.00272159000000000	0.00473705000000000	-0.00141803000000000	-9.45066000000000e-05	0.00194414000000000	1.06184000000000e-06	0.00229043000000000	6.52846000000000e-05
0.660000000000000	1.11934000000000	-5.47929000000000e-06	0.00300072000000000	0.00430145000000000	-0.00127083000000000	-8.79307000000000e-05	0.00183384000000000	1.12388000000000e-06	0.00210272000000000	6.14381000000000e-05
0.700000000000000	1.12738000000000	5.93170000000000e-07	0.00326462000000000	0.00391879000000000	-0.00112462000000000	-7.13474000000000e-05	0.00172723000000000	1.20233000000000e-06	0.00192207000000000	5.78709000000000e-05
0.740000000000000	1.13434000000000	-1.11102000000000e-06	0.00335941000000000	0.00357973000000000	-0.000978496000000000	-4.94865000000000e-05	0.00162701000000000	1.61244000000000e-07	0.00176391000000000	5.46482000000000e-05
0.780000000000000	1.14031000000000	-5.59657000000000e-06	0.00322665000000000	0.00326546000000000	-0.000831328000000000	-3.16774000000000e-05	0.00153687000000000	-7.99845000000000e-07	0.00162890000000000	5.18344000000000e-05
0.820000000000000	1.14536000000000	-1.11795000000000e-06	0.00297793000000000	0.00298828000000000	-0.000684309000000000	-1.69584000000000e-05	0.00145825000000000	-5.43078000000000e-07	0.00151355000000000	4.94407000000000e-05
0.860000000000000	1.14953000000000	-7.06284000000000e-07	0.00272047000000000	0.00276030000000000	-0.000537966000000000	-5.37188000000000e-06	0.00139233000000000	-1.81047000000000e-07	0.00141973000000000	4.74877000000000e-05
0.900000000000000	1.15279000000000	-2.40018000000000e-07	0.00247776000000000	0.00258098000000000	-0.000391543000000000	-1.66303000000000e-06	0.00134016000000000	1.93205000000000e-08	0.00134722000000000	4.60238000000000e-05
0.940000000000000	1.15507000000000	1.23201000000000e-07	0.00222734000000000	0.00245731000000000	-0.000245158000000000	-5.47282000000000e-06	0.00130324000000000	-3.88085000000000e-07	0.00129762000000000	4.50403000000000e-05
0.980000000000000	1.15633000000000	1.15455000000000e-06	0.00193322000000000	0.00239985000000000	-9.92462000000000e-05	-1.21128000000000e-05	0.00128249000000000	-7.18247000000000e-07	0.00127255000000000	4.44903000000000e-05
1.02000000000000	1.15652000000000	5.05672000000000e-07	0.00158521000000000	0.00240294000000000	4.64704000000000e-05	-1.63436000000000e-05	0.00127899000000000	-1.40495000000000e-06	0.00126851000000000	4.43857000000000e-05
1.06000000000000	1.15562000000000	2.78245000000000e-06	0.00117017000000000	0.00245616000000000	0.000191987000000000	-1.72578000000000e-05	0.00129313000000000	-2.43576000000000e-06	0.00128678000000000	4.48281000000000e-05
1.10000000000000	1.15363000000000	2.52772000000000e-07	0.000714900000000000	0.00256124000000000	0.000337367000000000	-1.48150000000000e-05	0.00132532000000000	-3.34984000000000e-06	0.00132904000000000	4.58362000000000e-05
1.14000000000000	1.15049000000000	-8.38886000000000e-07	0.000242264000000000	0.00272047000000000	0.000482510000000000	-1.08338000000000e-05	0.00137528000000000	-4.09086000000000e-06	0.00139449000000000	4.73799000000000e-05
1.18000000000000	1.14617000000000	-3.19426000000000e-07	-0.000231293000000000	0.00293277000000000	0.000627617000000000	-1.09136000000000e-05	0.00144072000000000	-5.22374000000000e-06	0.00148135000000000	4.94374000000000e-05
1.22000000000000	1.14072000000000	9.37134000000000e-08	-0.000660649000000000	0.00319537000000000	0.000772658000000000	-1.97310000000000e-05	0.00151922000000000	-6.42637000000000e-06	0.00158622000000000	5.19525000000000e-05
1.26000000000000	1.13419000000000	3.05053000000000e-06	-0.000984970000000000	0.00349982000000000	0.000917200000000000	-3.62655000000000e-05	0.00160902000000000	-7.61016000000000e-06	0.00170747000000000	5.49002000000000e-05
1.30000000000000	1.12667000000000	4.04182000000000e-06	-0.00121386000000000	0.00385550000000000	0.00106166000000000	-5.59367000000000e-05	0.00170841000000000	-9.56970000000000e-06	0.00185227000000000	5.81646000000000e-05
1.34000000000000	1.11830000000000	2.39440000000000e-06	-0.00142390000000000	0.00425874000000000	0.00120724000000000	-7.09188000000000e-05	0.00181559000000000	-1.15506000000000e-05	0.00202859000000000	6.17068000000000e-05
1.38000000000000	1.10915000000000	-1.05133000000000e-06	-0.00168040000000000	0.00470065000000000	0.00135287000000000	-8.43059000000000e-05	0.00192778000000000	-1.40997000000000e-05	0.00223971000000000	6.54758000000000e-05
1.42000000000000	1.09920000000000	5.95605000000000e-06	-0.00211859000000000	0.00517945000000000	0.00149666000000000	-0.000101681000000000	0.00204019000000000	-1.80615000000000e-05	0.00247661000000000	6.95366000000000e-05
1.46000000000000	1.08836000000000	8.18023000000000e-06	-0.00284891000000000	0.00571118000000000	0.00164002000000000	-0.000106615000000000	0.00214764000000000	-2.13174000000000e-05	0.00272329000000000	7.40008000000000e-05
1.50000000000000	1.07649000000000	8.98675000000000e-07	-0.00380652000000000	0.00630140000000000	0.00178024000000000	-7.99464000000000e-05	0.00224858000000000	-2.30785000000000e-05	0.00296482000000000	7.87950000000000e-05
1.54000000000000	1.06345000000000	9.03149000000000e-06	-0.00471829000000000	0.00698371000000000	0.00191798000000000	-3.49751000000000e-05	0.00233950000000000	-1.98232000000000e-05	0.00319423000000000	8.39552000000000e-05
1.58000000000000	1.04921000000000	-2.64958000000000e-06	-0.00529575000000000	0.00779798000000000	0.00205488000000000	-1.08235000000000e-05	0.00241290000000000	-1.56709000000000e-05	0.00340887000000000	8.93368000000000e-05
1.62000000000000	1.03359000000000	-3.73343000000000e-06	-0.00553494000000000	0.00875702000000000	0.00218939000000000	-8.28395000000000e-06	0.00246440000000000	-1.11881000000000e-05	0.00360107000000000	9.51823000000000e-05
1.66000000000000	1.01625000000000	-1.63477000000000e-05	-0.00543792000000000	0.00987780000000000	0.00231687000000000	-5.78954000000000e-06	0.00247340000000000	-7.08636000000000e-06	0.00377190000000000	0.000101816000000000
1.70000000000000	0.996463000000000	1.08214000000000e-05	-0.00494028000000000	0.0112011000000000	0.00243580000000000	5.41554000000000e-06	0.00242085000000000	-2.17935000000000e-06	0.00388318000000000	0.000109707000000000
1.74000000000000	0.973214000000000	-7.43883000000000e-06	-0.00406587000000000	0.0128570000000000	0.00253797000000000	2.42768000000000e-05	0.00228007000000000	2.67164000000000e-06	0.00391936000000000	0.000119194000000000
1.78000000000000	0.944362000000000	6.11131000000000e-05	-0.00313534000000000	0.0149801000000000	0.00259829000000000	4.63341000000000e-05	0.00203059000000000	8.40144000000000e-07	0.00384843000000000	0.000131632000000000
1.81986000000000	0.906089000000000	0.000132878000000000	-0.00242642000000000	0.0179128000000000	0.00259333000000000	8.78530000000000e-05	0.00164084000000000	1.95910000000000e-06	0.00369532000000000	0.000150483000000000
1.85555000000000	0.855107000000000	0.000128613000000000	-0.00175661000000000	0.0211707000000000	0.00248666000000000	9.40735000000000e-05	0.00119362000000000	4.88709000000000e-06	0.00343958000000000	0.000157279000000000
1.88403000000000	0.792630000000000	0.000121886000000000	-0.00114808000000000	0.0234929000000000	0.00225329000000000	6.94935000000000e-05	0.000809147000000000	5.64305000000000e-06	0.00314383000000000	0.000169188000000000
1.90675000000000	0.719924000000000	6.99769000000000e-05	-0.000697894000000000	0.0240477000000000	0.00190696000000000	5.78496000000000e-05	0.000519622000000000	5.02064000000000e-06	0.00278380000000000	0.000182028000000000
1.92488000000000	0.640984000000000	2.91017000000000e-05	-0.000419040000000000	0.0226791000000000	0.00149435000000000	6.17659000000000e-05	0.000320429000000000	3.69558000000000e-06	0.00238244000000000	0.000191846000000000
1.93934000000000	0.560882000000000	5.67046000000000e-06	-0.000272776000000000	0.0198495000000000	0.00108589000000000	6.42676000000000e-05	0.000191656000000000	2.13088000000000e-06	0.00199264000000000	0.000195837000000000
1.95087000000000	0.484155000000000	-2.18714000000000e-06	-0.000201495000000000	0.0163257000000000	0.000738527000000000	5.89721000000000e-05	0.000111947000000000	9.36113000000000e-07	0.00164728000000000	0.000193361000000000
1.96008000000000	0.413886000000000	-2.75564000000000e-06	-0.000163603000000000	0.0128080000000000	0.000477064000000000	4.88231000000000e-05	6.41295000000000e-05	2.63149000000000e-07	0.00135066000000000	0.000185551000000000
1.96742000000000	0.351572000000000	-1.78085000000000e-06	-0.000138404000000000	0.00972336000000000	0.000297357000000000	3.78469000000000e-05	3.61591000000000e-05	-1.98221000000000e-08	0.00109671000000000	0.000174268000000000
1.97328000000000	0.297502000000000	-1.08861000000000e-06	-0.000118088000000000	0.00722502000000000	0.000181465000000000	2.82928000000000e-05	2.01887000000000e-05	-9.78439000000000e-08	0.000879871000000000	0.000161192000000000
1.97795000000000	0.251276000000000	-2.34188000000000e-07	-0.000100509000000000	0.00529870000000000	0.000109938000000000	2.07641000000000e-05	1.12767000000000e-05	-9.60337000000000e-08	0.000696960000000000	0.000147734000000000
1.98168000000000	0.212039000000000	-3.58845000000000e-07	-8.52388000000000e-05	0.00384948000000000	6.63735000000000e-05	1.50840000000000e-05	6.29810000000000e-06	-7.31886000000000e-08	0.000545192000000000	0.000132778000000000
1.98500000000000	0.176078000000000	-4.58527000000000e-07	-7.08897000000000e-05	0.00270748000000000	3.80696000000000e-05	1.05850000000000e-05	3.30476000000000e-06	-4.87543000000000e-08	0.000412253000000000	0.000135586000000000
1.98833000000000	0.139817000000000	-2.79473000000000e-07	-5.60220000000000e-05	0.00175652000000000	1.91497000000000e-05	6.81378000000000e-06	1.46606000000000e-06	-2.72952000000000e-08	0.000286764000000000	0.000136248000000000
1.99167000000000	0.103374000000000	-2.46544000000000e-07	-4.07660000000000e-05	0.00100762000000000	7.81338000000000e-06	3.83511000000000e-06	4.91805000000000e-07	-1.20697000000000e-08	0.000174089000000000	0.000137360000000000
1.99500000000000	0.0665512000000000	-1.38017000000000e-06	-2.52620000000000e-05	0.000456684000000000	2.09374000000000e-06	1.66678000000000e-06	9.38193000000000e-08	-3.44651000000000e-09	8.09689000000000e-05	0.000133595000000000
1.99833000000000	0.0321750000000000	4.27277000000000e-06	-9.52417000000000e-06	0.000161771000000000	3.06910000000000e-07	4.75782000000000e-07	4.83563000000000e-09	-6.65589000000000e-10	2.17056000000000e-05	0.000185564000000000
2	0	0	0	0	0	0	0	0	0	0
