% %
% data is not non-dimensionalized
% y,	<u>,	<v>,	<w>,	<uu>,	<uv>,	<uw>,	<vv>,	<vw>,	<ww>
%
0	0	0	0	0	0	0	0	0	0
0.00166660000000000	0.0282756000000000	1.04300000000000e-06	7.24778000000000e-05	0.000106912000000000	-1.78934000000000e-07	-7.62776000000000e-08	8.02962000000000e-09	-1.71625000000000e-09	3.39978000000000e-05
0.00499980000000000	0.0845958000000000	2.78253000000000e-06	0.000217311000000000	0.000955814000000000	-7.33391000000000e-06	-2.21836000000000e-07	5.18412000000000e-07	-3.06956000000000e-08	0.000234119000000000
0.00833300000000000	0.140443000000000	3.34169000000000e-06	0.000361392000000000	0.00262489000000000	-3.49889000000000e-05	3.71751000000000e-07	3.07929000000000e-06	-1.17403000000000e-07	0.000530094000000000
0.0116662000000000	0.195357000000000	2.35863000000000e-06	0.000503690000000000	0.00501275000000000	-9.51259000000000e-05	2.36272000000000e-06	9.57041000000000e-06	-2.79137000000000e-07	0.000859724000000000
0.0149994000000000	0.248733000000000	1.42572000000000e-06	0.000643009000000000	0.00791904000000000	-0.000193282000000000	5.96212000000000e-06	2.13890000000000e-05	-5.17138000000000e-07	0.00118831000000000
0.0183206000000000	0.299745000000000	1.56221000000000e-06	0.000777657000000000	0.0110613000000000	-0.000327292000000000	1.08477000000000e-05	3.92876000000000e-05	-8.21792000000000e-07	0.00149810000000000
0.0220491000000000	0.353965000000000	1.44758000000000e-06	0.000922918000000000	0.0146016000000000	-0.000512289000000000	1.70531000000000e-05	6.72131000000000e-05	-1.23077000000000e-06	0.00182463000000000
0.0267225000000000	0.416339000000000	-1.97038000000000e-06	0.00109390000000000	0.0185655000000000	-0.000775434000000000	2.45449000000000e-05	0.000114342000000000	-1.80455000000000e-06	0.00219629000000000
0.0325806000000000	0.485049000000000	-1.22006000000000e-05	0.00128886000000000	0.0223328000000000	-0.00111417000000000	3.18927000000000e-05	0.000191703000000000	-2.56719000000000e-06	0.00261156000000000
0.0399233000000000	0.556712000000000	-3.12260000000000e-05	0.00150225000000000	0.0250752000000000	-0.00149791000000000	3.78993000000000e-05	0.000313777000000000	-3.55313000000000e-06	0.00306286000000000
0.0491272000000000	0.627036000000000	-5.70097000000000e-05	0.00171946000000000	0.0261413000000000	-0.00187367000000000	4.32921000000000e-05	0.000497000000000000	-4.89036000000000e-06	0.00352445000000000
0.0606638000000000	0.692108000000000	-8.33749000000000e-05	0.00190410000000000	0.0253929000000000	-0.00219082000000000	4.95150000000000e-05	0.000755928000000000	-6.84147000000000e-06	0.00394737000000000
0.0751244000000000	0.749506000000000	-0.000100553000000000	0.00199584000000000	0.0232057000000000	-0.00242300000000000	5.86257000000000e-05	0.00109671000000000	-9.42667000000000e-06	0.00427878000000000
0.0932501000000000	0.798646000000000	-9.64085000000000e-05	0.00192690000000000	0.0202212000000000	-0.00256931000000000	7.07693000000000e-05	0.00150789000000000	-1.18464000000000e-05	0.00450094000000000
0.115970000000000	0.840570000000000	-7.98885000000000e-05	0.00169217000000000	0.0170519000000000	-0.00263892000000000	7.33358000000000e-05	0.00195177000000000	-1.33619000000000e-05	0.00464322000000000
0.144448000000000	0.877182000000000	1.30324000000000e-05	0.00144122000000000	0.0141752000000000	-0.00265669000000000	7.22882000000000e-05	0.00235824000000000	-1.11090000000000e-05	0.00471137000000000
0.180144000000000	0.910609000000000	2.48141000000000e-05	0.00133545000000000	0.0117793000000000	-0.00261291000000000	7.87926000000000e-05	0.00265277000000000	-1.03021000000000e-05	0.00468534000000000
0.220000000000000	0.939719000000000	-7.61825000000000e-06	0.00131240000000000	0.00997309000000000	-0.00251513000000000	4.86827000000000e-05	0.00277578000000000	-9.93641000000000e-06	0.00451061000000000
0.260000000000000	0.963852000000000	3.23403000000000e-05	0.00136617000000000	0.00873447000000000	-0.00240942000000000	2.88821000000000e-05	0.00277956000000000	-8.26691000000000e-06	0.00427379000000000
0.300000000000000	0.984416000000000	-5.06540000000000e-06	0.00128874000000000	0.00781816000000000	-0.00229598000000000	2.98629000000000e-05	0.00272543000000000	-1.05884000000000e-05	0.00401363000000000
0.340000000000000	1.00250000000000	3.02096000000000e-06	0.00113894000000000	0.00708568000000000	-0.00217249000000000	2.03544000000000e-05	0.00264007000000000	-7.45220000000000e-06	0.00373782000000000
0.380000000000000	1.01895000000000	-8.93000000000000e-06	0.00113988000000000	0.00645629000000000	-0.00204445000000000	4.60667000000000e-06	0.00253773000000000	-4.56487000000000e-06	0.00346790000000000
0.420000000000000	1.03402000000000	2.67701000000000e-06	0.000961059000000000	0.00590293000000000	-0.00191622000000000	-7.18543000000000e-06	0.00242229000000000	-6.41744000000000e-06	0.00320227000000000
0.460000000000000	1.04786000000000	-1.47694000000000e-05	0.000653075000000000	0.00540383000000000	-0.00178466000000000	-1.31686000000000e-05	0.00230327000000000	-4.65687000000000e-06	0.00293320000000000
0.500000000000000	1.06048000000000	-3.09256000000000e-07	0.000501144000000000	0.00497990000000000	-0.00165383000000000	-2.02951000000000e-05	0.00218085000000000	-3.14242000000000e-06	0.00267255000000000
0.540000000000000	1.07188000000000	-5.21942000000000e-06	0.000494475000000000	0.00459510000000000	-0.00152090000000000	-2.41196000000000e-05	0.00205442000000000	-2.16009000000000e-06	0.00243636000000000
0.580000000000000	1.08234000000000	-4.81727000000000e-06	0.000577289000000000	0.00420229000000000	-0.00138712000000000	-7.13361000000000e-06	0.00192853000000000	-1.71384000000000e-06	0.00222531000000000
0.620000000000000	1.09197000000000	-2.81220000000000e-06	0.000618569000000000	0.00381453000000000	-0.00125381000000000	1.87708000000000e-05	0.00180603000000000	-2.03941000000000e-06	0.00202721000000000
0.660000000000000	1.10084000000000	-4.09016000000000e-06	0.000613311000000000	0.00344691000000000	-0.00111961000000000	3.69411000000000e-05	0.00168783000000000	-2.18502000000000e-06	0.00183886000000000
0.700000000000000	1.10892000000000	-1.56169000000000e-06	0.000586681000000000	0.00310169000000000	-0.000986475000000000	4.52759000000000e-05	0.00157552000000000	-2.79075000000000e-06	0.00167185000000000
0.740000000000000	1.11619000000000	-1.42473000000000e-06	0.000474537000000000	0.00278111000000000	-0.000853518000000000	4.52054000000000e-05	0.00147057000000000	-3.74031000000000e-06	0.00152804000000000
0.780000000000000	1.12255000000000	-7.46773000000000e-07	0.000391270000000000	0.00250171000000000	-0.000721722000000000	4.12538000000000e-05	0.00137565000000000	-4.42812000000000e-06	0.00139649000000000
0.820000000000000	1.12793000000000	-2.42307000000000e-06	0.000362789000000000	0.00225967000000000	-0.000589620000000000	3.40301000000000e-05	0.00129346000000000	-5.45431000000000e-06	0.00127760000000000
0.860000000000000	1.13239000000000	-8.50919000000000e-07	0.000223495000000000	0.00204516000000000	-0.000458031000000000	3.05073000000000e-05	0.00122492000000000	-7.44716000000000e-06	0.00117332000000000
0.900000000000000	1.13579000000000	-1.49118000000000e-06	-3.36560000000000e-05	0.00187908000000000	-0.000327481000000000	3.00610000000000e-05	0.00117135000000000	-8.49274000000000e-06	0.00108384000000000
0.940000000000000	1.13801000000000	6.59750000000000e-07	-0.000322610000000000	0.00177284000000000	-0.000197664000000000	3.01035000000000e-05	0.00113408000000000	-8.82451000000000e-06	0.00101829000000000
0.980000000000000	1.13898000000000	-6.25144000000000e-08	-0.000612890000000000	0.00172371000000000	-6.81500000000000e-05	2.79655000000000e-05	0.00111384000000000	-8.86159000000000e-06	0.000984125000000000
1.02000000000000	1.13874000000000	8.09390000000000e-07	-0.000890817000000000	0.00172799000000000	6.20380000000000e-05	2.33748000000000e-05	0.00111154000000000	-8.63523000000000e-06	0.000982335000000000
1.06000000000000	1.13744000000000	2.89485000000000e-06	-0.00116901000000000	0.00178683000000000	0.000192676000000000	1.59009000000000e-05	0.00112696000000000	-7.90909000000000e-06	0.00101098000000000
1.10000000000000	1.13516000000000	-1.05036000000000e-07	-0.00147128000000000	0.00189251000000000	0.000323480000000000	7.73262000000000e-06	0.00116056000000000	-6.96297000000000e-06	0.00106781000000000
1.14000000000000	1.13199000000000	1.56511000000000e-07	-0.00178575000000000	0.00203479000000000	0.000454581000000000	4.35327000000000e-06	0.00121198000000000	-5.69692000000000e-06	0.00115356000000000
1.18000000000000	1.12788000000000	6.50156000000000e-07	-0.00203294000000000	0.00220997000000000	0.000585102000000000	8.56702000000000e-06	0.00127983000000000	-3.88215000000000e-06	0.00126639000000000
1.22000000000000	1.12271000000000	2.29917000000000e-06	-0.00212896000000000	0.00242007000000000	0.000714525000000000	1.91275000000000e-05	0.00136239000000000	-1.67280000000000e-06	0.00139709000000000
1.26000000000000	1.11638000000000	1.95623000000000e-07	-0.00204674000000000	0.00266329000000000	0.000843991000000000	3.00322000000000e-05	0.00145820000000000	1.48340000000000e-08	0.00154602000000000
1.30000000000000	1.10901000000000	2.66172000000000e-06	-0.00186238000000000	0.00293165000000000	0.000974025000000000	3.23851000000000e-05	0.00156458000000000	9.42226000000000e-07	0.00171065000000000
1.34000000000000	1.10081000000000	1.76657000000000e-06	-0.00170748000000000	0.00322873000000000	0.00110528000000000	2.24867000000000e-05	0.00167838000000000	5.01317000000000e-07	0.00188523000000000
1.38000000000000	1.09178000000000	8.84053000000000e-06	-0.00160857000000000	0.00355294000000000	0.00123504000000000	5.62581000000000e-06	0.00179634000000000	8.09245000000000e-07	0.00207957000000000
1.42000000000000	1.08189000000000	5.50462000000000e-06	-0.00154044000000000	0.00391394000000000	0.00136597000000000	-1.02813000000000e-05	0.00191904000000000	6.27820000000000e-07	0.00230200000000000
1.46000000000000	1.07102000000000	4.85805000000000e-06	-0.00157266000000000	0.00431017000000000	0.00149581000000000	-2.01218000000000e-05	0.00204830000000000	7.16316000000000e-07	0.00254367000000000
1.50000000000000	1.05918000000000	-6.44662000000000e-07	-0.00155198000000000	0.00473997000000000	0.00162774000000000	-2.23926000000000e-05	0.00218249000000000	2.67838000000000e-06	0.00279495000000000
1.54000000000000	1.04639000000000	6.52151000000000e-06	-0.00142113000000000	0.00519685000000000	0.00175890000000000	-1.96627000000000e-05	0.00231576000000000	4.26375000000000e-06	0.00303504000000000
1.58000000000000	1.03261000000000	4.61809000000000e-06	-0.00124181000000000	0.00568882000000000	0.00189090000000000	-1.34901000000000e-05	0.00244139000000000	4.88129000000000e-06	0.00327729000000000
1.62000000000000	1.01768000000000	1.14599000000000e-05	-0.00101360000000000	0.00622093000000000	0.00202007000000000	-1.24706000000000e-05	0.00256094000000000	4.74079000000000e-06	0.00352404000000000
1.66000000000000	1.00128000000000	-1.92429000000000e-05	-0.000841209000000000	0.00682518000000000	0.00214876000000000	1.66304000000000e-06	0.00267231000000000	4.04243000000000e-06	0.00375389000000000
1.70000000000000	0.983172000000000	2.10111000000000e-05	-0.000580282000000000	0.00755581000000000	0.00227337000000000	2.03502000000000e-05	0.00275956000000000	5.35431000000000e-06	0.00398718000000000
1.74000000000000	0.962807000000000	-4.05340000000000e-05	-0.000182440000000000	0.00852416000000000	0.00239445000000000	3.39653000000000e-05	0.00280786000000000	5.71278000000000e-06	0.00422443000000000
1.78000000000000	0.939279000000000	2.08830000000000e-05	0.000243115000000000	0.00980709000000000	0.00250572000000000	5.34100000000000e-05	0.00279518000000000	2.71593000000000e-06	0.00443905000000000
1.81986000000000	0.910989000000000	-3.70090000000000e-05	0.000545977000000000	0.0116877000000000	0.00261100000000000	4.47651000000000e-05	0.00265952000000000	-9.16593000000000e-07	0.00462783000000000
1.85555000000000	0.878422000000000	-7.58252000000000e-06	0.000288093000000000	0.0141831000000000	0.00265937000000000	3.64836000000000e-05	0.00235827000000000	-5.02549000000000e-06	0.00463958000000000
1.88403000000000	0.842720000000000	8.68112000000000e-05	-0.000230858000000000	0.0171395000000000	0.00264416000000000	4.15878000000000e-05	0.00193986000000000	-6.46895000000000e-06	0.00456451000000000
1.90675000000000	0.801397000000000	9.85396000000000e-05	-0.000561663000000000	0.0203536000000000	0.00257241000000000	4.94423000000000e-05	0.00149112000000000	-4.41676000000000e-06	0.00442986000000000
1.92488000000000	0.752374000000000	9.99168000000000e-05	-0.000673592000000000	0.0233909000000000	0.00242378000000000	5.07263000000000e-05	0.00107939000000000	-2.96518000000000e-06	0.00421087000000000
1.93934000000000	0.694698000000000	8.06082000000000e-05	-0.000668846000000000	0.0255866000000000	0.00218754000000000	5.32729000000000e-05	0.000741791000000000	-2.03392000000000e-06	0.00388887000000000
1.95087000000000	0.629085000000000	5.50371000000000e-05	-0.000618195000000000	0.0262872000000000	0.00186584000000000	5.60111000000000e-05	0.000486799000000000	-1.55991000000000e-06	0.00347993000000000
1.96008000000000	0.558160000000000	2.98824000000000e-05	-0.000550617000000000	0.0251361000000000	0.00148734000000000	5.78351000000000e-05	0.000307037000000000	-1.17391000000000e-06	0.00302985000000000
1.96742000000000	0.485987000000000	1.16173000000000e-05	-0.000476625000000000	0.0223140000000000	0.00110352000000000	5.71036000000000e-05	0.000187532000000000	-7.81752000000000e-07	0.00258600000000000
1.97328000000000	0.416914000000000	1.86503000000000e-06	-0.000404548000000000	0.0184992000000000	0.000766520000000000	5.29038000000000e-05	0.000111860000000000	-4.84717000000000e-07	0.00217538000000000
1.97795000000000	0.354311000000000	-1.41845000000000e-06	-0.000340327000000000	0.0145204000000000	0.000505668000000000	4.60298000000000e-05	6.57643000000000e-05	-3.00103000000000e-07	0.00180691000000000
1.98168000000000	0.299957000000000	-1.53096000000000e-06	-0.000285969000000000	0.0109849000000000	0.000322726000000000	3.81341000000000e-05	3.84483000000000e-05	-1.90234000000000e-07	0.00148290000000000
1.98500000000000	0.248860000000000	-1.39296000000000e-06	-0.000235920000000000	0.00785671000000000	0.000190427000000000	2.97862000000000e-05	2.09372000000000e-05	-1.17992000000000e-07	0.00117556000000000
1.98833000000000	0.195430000000000	-2.30188000000000e-06	-0.000184502000000000	0.00496981000000000	9.36563000000000e-05	2.06834000000000e-05	9.37099000000000e-06	-6.48223000000000e-08	0.000849883000000000
1.99167000000000	0.140483000000000	-3.26610000000000e-06	-0.000132265000000000	0.00260129000000000	3.44297000000000e-05	1.19158000000000e-05	3.01609000000000e-06	-2.88281000000000e-08	0.000523609000000000
1.99500000000000	0.0846160000000000	-2.72333000000000e-06	-7.95169000000000e-05	0.000947015000000000	7.21285000000000e-06	4.77548000000000e-06	5.07926000000000e-07	-8.44674000000000e-09	0.000231059000000000
1.99833000000000	0.0282820000000000	-1.02183000000000e-06	-2.65244000000000e-05	0.000105915000000000	1.75613000000000e-07	5.93839000000000e-07	7.86673000000000e-09	-6.22082000000000e-10	3.35166000000000e-05
2	0	0	0	0	0	0	0	0	0
