% %
% data is not non-dimensionalized
% y,	<u>,	<v>,	<w>,	<uu>,	<uv>,	<uw>,	<vv>,	<vw>,	<ww>
%
0	0	0	0	0	0	0	0	0	0
0.00166660000000000	0.0241646000000000	3.29895000000000e-07	3.39937000000000e-05	8.19928000000000e-05	-8.68746000000000e-08	-2.45751000000000e-07	3.03225000000000e-09	-9.58888000000000e-11	2.02410000000000e-05
0.00499980000000000	0.0723138000000000	9.29258000000000e-07	0.000101940000000000	0.000730322000000000	-3.22077000000000e-06	-1.86433000000000e-06	1.65228000000000e-07	-1.72342000000000e-09	0.000145177000000000
0.00833300000000000	0.120177000000000	1.22565000000000e-06	0.000169736000000000	0.00201413000000000	-1.55361000000000e-05	-4.38947000000000e-06	9.81672000000000e-07	-7.76765000000000e-09	0.000339861000000000
0.0116662000000000	0.167541000000000	1.02497000000000e-06	0.000237223000000000	0.00389937000000000	-4.33777000000000e-05	-7.14274000000000e-06	3.09541000000000e-06	-2.13139000000000e-08	0.000568198000000000
0.0149994000000000	0.214098000000000	8.16476000000000e-07	0.000304217000000000	0.00630615000000000	-9.15568000000000e-05	-9.54972000000000e-06	7.06376000000000e-06	-4.28787000000000e-08	0.000806573000000000
0.0183206000000000	0.259314000000000	1.09864000000000e-06	0.000370308000000000	0.00908880000000000	-0.000162242000000000	-1.11721000000000e-05	1.32963000000000e-05	-7.03255000000000e-08	0.00103964000000000
0.0220491000000000	0.308335000000000	1.73236000000000e-06	0.000443619000000000	0.0124840000000000	-0.000267946000000000	-1.18157000000000e-05	2.34200000000000e-05	-1.05210000000000e-07	0.00129105000000000
0.0267225000000000	0.366339000000000	1.72188000000000e-06	0.000533997000000000	0.0167317000000000	-0.000434188000000000	-1.05048000000000e-05	4.14141000000000e-05	-1.44829000000000e-07	0.00158111000000000
0.0325806000000000	0.432602000000000	-1.88502000000000e-06	0.000644727000000000	0.0214031000000000	-0.000675306000000000	-5.76437000000000e-06	7.29459000000000e-05	-1.80391000000000e-07	0.00190535000000000
0.0399233000000000	0.504621000000000	-1.34473000000000e-05	0.000778583000000000	0.0255396000000000	-0.000985210000000000	2.85592000000000e-06	0.000126825000000000	-2.18417000000000e-07	0.00225440000000000
0.0491272000000000	0.578186000000000	-3.33607000000000e-05	0.000935865000000000	0.0279672000000000	-0.00132476000000000	1.25912000000000e-05	0.000215491000000000	-2.90606000000000e-07	0.00260705000000000
0.0606638000000000	0.648623000000000	-5.49064000000000e-05	0.00111334000000000	0.0280258000000000	-0.00163439000000000	1.87037000000000e-05	0.000354202000000000	-3.28177000000000e-07	0.00292790000000000
0.0751244000000000	0.712588000000000	-7.35226000000000e-05	0.00130741000000000	0.0259773000000000	-0.00186783000000000	2.03615000000000e-05	0.000557159000000000	3.98653000000000e-08	0.00318431000000000
0.0932501000000000	0.769026000000000	-7.75918000000000e-05	0.00150333000000000	0.0226485000000000	-0.00201081000000000	2.55361000000000e-05	0.000830039000000000	6.94619000000000e-07	0.00335896000000000
0.115970000000000	0.818620000000000	-7.45603000000000e-05	0.00161637000000000	0.0189107000000000	-0.00207648000000000	3.74358000000000e-05	0.00115516000000000	-6.18924000000000e-07	0.00343983000000000
0.144448000000000	0.862366000000000	5.66079000000000e-06	0.00150385000000000	0.0153638000000000	-0.00209896000000000	4.58116000000000e-05	0.00148298000000000	-1.99156000000000e-06	0.00341522000000000
0.180144000000000	0.901350000000000	1.16091000000000e-05	0.00120452000000000	0.0123423000000000	-0.00208229000000000	3.81947000000000e-05	0.00174533000000000	-1.74581000000000e-06	0.00332080000000000
0.220000000000000	0.933900000000000	-3.17844000000000e-06	0.000864539000000000	0.0101489000000000	-0.00203299000000000	2.83970000000000e-05	0.00188427000000000	-1.64126000000000e-06	0.00315969000000000
0.260000000000000	0.960380000000000	2.18405000000000e-05	0.000528662000000000	0.00867541000000000	-0.00195355000000000	2.29254000000000e-05	0.00191362000000000	-2.69562000000000e-06	0.00300779000000000
0.300000000000000	0.983243000000000	-6.63403000000000e-06	0.000287248000000000	0.00755601000000000	-0.00186240000000000	7.96297000000000e-06	0.00190045000000000	-1.55109000000000e-06	0.00287523000000000
0.340000000000000	1.00350000000000	1.32330000000000e-05	7.70295000000000e-06	0.00670534000000000	-0.00176480000000000	-7.19781000000000e-06	0.00184873000000000	-2.48995000000000e-06	0.00272646000000000
0.380000000000000	1.02155000000000	-1.97866000000000e-06	-0.000442530000000000	0.00599752000000000	-0.00166214000000000	-6.67468000000000e-06	0.00177979000000000	-3.68574000000000e-06	0.00254384000000000
0.420000000000000	1.03778000000000	-3.90534000000000e-06	-0.000920820000000000	0.00537415000000000	-0.00155738000000000	-2.14501000000000e-06	0.00170265000000000	-4.70381000000000e-06	0.00235324000000000
0.460000000000000	1.05240000000000	5.79542000000000e-07	-0.00134568000000000	0.00484016000000000	-0.00145142000000000	1.54747000000000e-06	0.00162080000000000	-6.22808000000000e-06	0.00217852000000000
0.500000000000000	1.06580000000000	-4.88262000000000e-06	-0.00168542000000000	0.00437165000000000	-0.00134367000000000	6.18434000000000e-06	0.00153652000000000	-5.96736000000000e-06	0.00201891000000000
0.540000000000000	1.07815000000000	4.50793000000000e-06	-0.00191239000000000	0.00395662000000000	-0.00123699000000000	1.65779000000000e-05	0.00145105000000000	-5.35110000000000e-06	0.00186220000000000
0.580000000000000	1.08940000000000	-1.04140000000000e-05	-0.00207190000000000	0.00358642000000000	-0.00113054000000000	2.97974000000000e-05	0.00136756000000000	-4.64840000000000e-06	0.00170209000000000
0.620000000000000	1.09958000000000	-2.10354000000000e-07	-0.00223791000000000	0.00325288000000000	-0.00102318000000000	3.74765000000000e-05	0.00128751000000000	-4.56681000000000e-06	0.00153994000000000
0.660000000000000	1.10877000000000	-6.05418000000000e-06	-0.00240179000000000	0.00294089000000000	-0.000914520000000000	3.48776000000000e-05	0.00120960000000000	-3.62636000000000e-06	0.00139182000000000
0.700000000000000	1.11700000000000	5.11233000000000e-06	-0.00250500000000000	0.00265062000000000	-0.000805888000000000	3.08413000000000e-05	0.00113448000000000	-2.86298000000000e-06	0.00126517000000000
0.740000000000000	1.12437000000000	-1.34522000000000e-06	-0.00260595000000000	0.00238600000000000	-0.000696236000000000	2.62978000000000e-05	0.00106362000000000	-2.30346000000000e-06	0.00115401000000000
0.780000000000000	1.13085000000000	-5.19583000000000e-07	-0.00272037000000000	0.00215538000000000	-0.000587137000000000	2.20116000000000e-05	0.00100094000000000	-1.97225000000000e-06	0.00105488000000000
0.820000000000000	1.13634000000000	-2.89491000000000e-06	-0.00281490000000000	0.00196243000000000	-0.000478753000000000	1.87842000000000e-05	0.000948223000000000	-1.32702000000000e-06	0.000968363000000000
0.860000000000000	1.14070000000000	-1.52608000000000e-06	-0.00280436000000000	0.00180783000000000	-0.000370616000000000	1.67894000000000e-05	0.000905653000000000	-2.58724000000000e-07	0.000896772000000000
0.900000000000000	1.14389000000000	-6.42496000000000e-07	-0.00266397000000000	0.00169179000000000	-0.000262364000000000	1.62670000000000e-05	0.000873489000000000	7.91351000000000e-07	0.000843011000000000
0.940000000000000	1.14595000000000	7.07109000000000e-07	-0.00239449000000000	0.00161226000000000	-0.000153831000000000	1.75113000000000e-05	0.000852044000000000	2.03981000000000e-06	0.000810957000000000
0.980000000000000	1.14692000000000	4.92346000000000e-11	-0.00202298000000000	0.00157783000000000	-4.51635000000000e-05	1.89252000000000e-05	0.000842392000000000	2.84822000000000e-06	0.000800752000000000
1.02000000000000	1.14682000000000	-2.00359000000000e-06	-0.00162496000000000	0.00159216000000000	6.32941000000000e-05	1.74276000000000e-05	0.000845316000000000	3.17629000000000e-06	0.000809228000000000
1.06000000000000	1.14565000000000	-6.58328000000000e-07	-0.00126542000000000	0.00165315000000000	0.000171527000000000	1.22134000000000e-05	0.000860454000000000	3.45740000000000e-06	0.000835418000000000
1.10000000000000	1.14342000000000	2.31527000000000e-06	-0.000962463000000000	0.00175749000000000	0.000279752000000000	6.34485000000000e-06	0.000886890000000000	3.55877000000000e-06	0.000880223000000000
1.14000000000000	1.14011000000000	-4.33123000000000e-07	-0.000719824000000000	0.00190228000000000	0.000387782000000000	5.56073000000000e-07	0.000924630000000000	3.35908000000000e-06	0.000945680000000000
1.18000000000000	1.13574000000000	-2.25314000000000e-07	-0.000525749000000000	0.00208839000000000	0.000496249000000000	-4.80551000000000e-06	0.000973276000000000	3.39639000000000e-06	0.00102804000000000
1.22000000000000	1.13036000000000	5.69147000000000e-07	-0.000352548000000000	0.00230877000000000	0.000605161000000000	-9.49761000000000e-06	0.00103084000000000	3.04769000000000e-06	0.00112019000000000
1.26000000000000	1.12406000000000	4.39741000000000e-06	-0.000205231000000000	0.00255222000000000	0.000713327000000000	-9.47667000000000e-06	0.00109518000000000	2.92059000000000e-06	0.00122115000000000
1.30000000000000	1.11687000000000	1.83027000000000e-06	-9.21769000000000e-05	0.00282238000000000	0.000821061000000000	-1.21809000000000e-06	0.00116693000000000	2.89952000000000e-06	0.00133405000000000
1.34000000000000	1.10878000000000	-4.00605000000000e-06	2.39315000000000e-05	0.00311892000000000	0.000928309000000000	5.08177000000000e-06	0.00124661000000000	3.08952000000000e-06	0.00146751000000000
1.38000000000000	1.09982000000000	-5.26747000000000e-06	0.000129456000000000	0.00344302000000000	0.00103609000000000	4.89023000000000e-06	0.00133166000000000	2.61651000000000e-06	0.00161601000000000
1.42000000000000	1.08997000000000	8.92725000000000e-06	8.80893000000000e-05	0.00380402000000000	0.00114234000000000	9.43805000000000e-07	0.00141525000000000	1.80796000000000e-06	0.00176921000000000
1.46000000000000	1.07923000000000	3.67460000000000e-06	-0.000112175000000000	0.00419033000000000	0.00124948000000000	-7.12656000000000e-07	0.00149690000000000	2.14216000000000e-06	0.00192815000000000
1.50000000000000	1.06755000000000	3.30924000000000e-08	-0.000385558000000000	0.00459347000000000	0.00135409000000000	6.82042000000000e-06	0.00157795000000000	2.37219000000000e-06	0.00208898000000000
1.54000000000000	1.05482000000000	7.95081000000000e-06	-0.000716651000000000	0.00503803000000000	0.00145947000000000	1.79518000000000e-05	0.00165821000000000	3.37421000000000e-06	0.00224970000000000
1.58000000000000	1.04098000000000	-5.59385000000000e-06	-0.00101889000000000	0.00553619000000000	0.00156327000000000	2.28869000000000e-05	0.00173365000000000	3.59431000000000e-06	0.00241066000000000
1.62000000000000	1.02557000000000	1.01057000000000e-05	-0.00120306000000000	0.00610248000000000	0.00166406000000000	3.30735000000000e-05	0.00180513000000000	5.14000000000000e-06	0.00257900000000000
1.66000000000000	1.00831000000000	-1.87515000000000e-05	-0.00120183000000000	0.00675956000000000	0.00176300000000000	4.69890000000000e-05	0.00186652000000000	5.32148000000000e-06	0.00275053000000000
1.70000000000000	0.988841000000000	8.58598000000000e-06	-0.00106014000000000	0.00758276000000000	0.00185607000000000	5.65233000000000e-05	0.00191392000000000	4.94184000000000e-06	0.00291434000000000
1.74000000000000	0.966430000000000	-2.21464000000000e-05	-0.000980629000000000	0.00866548000000000	0.00193912000000000	4.98109000000000e-05	0.00192582000000000	2.50508000000000e-06	0.00307864000000000
1.78000000000000	0.939999000000000	1.10045000000000e-05	-0.000949223000000000	0.0101678000000000	0.00201977000000000	1.72669000000000e-05	0.00189202000000000	2.30320000000000e-06	0.00324746000000000
1.81986000000000	0.907648000000000	-2.40191000000000e-05	-0.000907464000000000	0.0123732000000000	0.00207202000000000	-4.58066000000000e-05	0.00175857000000000	9.56273000000000e-07	0.00341067000000000
1.85555000000000	0.868814000000000	-2.79350000000000e-06	-0.00101038000000000	0.0154275000000000	0.00209731000000000	-9.69027000000000e-05	0.00149868000000000	-4.98979000000000e-07	0.00350982000000000
1.88403000000000	0.825005000000000	7.38114000000000e-05	-0.00114629000000000	0.0190107000000000	0.00208022000000000	-8.28852000000000e-05	0.00117095000000000	2.02649000000000e-07	0.00353581000000000
1.90675000000000	0.774967000000000	7.83754000000000e-05	-0.00117411000000000	0.0227687000000000	0.00201709000000000	-4.50673000000000e-05	0.000844307000000000	-3.55749000000000e-07	0.00345969000000000
1.92488000000000	0.717938000000000	7.44490000000000e-05	-0.00111936000000000	0.0260988000000000	0.00187825000000000	-2.69961000000000e-05	0.000568779000000000	-3.21769000000000e-07	0.00327382000000000
1.93934000000000	0.653545000000000	5.52702000000000e-05	-0.00101351000000000	0.0281890000000000	0.00165095000000000	-3.09796000000000e-05	0.000362497000000000	-4.62907000000000e-07	0.00299787000000000
1.95087000000000	0.582830000000000	3.36516000000000e-05	-0.000890716000000000	0.0281966000000000	0.00134380000000000	-3.62531000000000e-05	0.000221241000000000	-4.70014000000000e-07	0.00266426000000000
1.96008000000000	0.508964000000000	1.40098000000000e-05	-0.000760059000000000	0.0258178000000000	0.00100263000000000	-3.60210000000000e-05	0.000130596000000000	-1.80437000000000e-07	0.00230748000000000
1.96742000000000	0.436546000000000	2.26227000000000e-06	-0.000634427000000000	0.0216926000000000	0.000688893000000000	-3.07503000000000e-05	7.52737000000000e-05	4.90172000000000e-08	0.00195596000000000
1.97328000000000	0.369815000000000	-1.61357000000000e-06	-0.000524185000000000	0.0169970000000000	0.000443652000000000	-2.29851000000000e-05	4.27841000000000e-05	1.24843000000000e-07	0.00162752000000000
1.97795000000000	0.311335000000000	-1.74579000000000e-06	-0.000433031000000000	0.0127048000000000	0.000274062000000000	-1.56479000000000e-05	2.42039000000000e-05	1.03704000000000e-07	0.00133151000000000
1.98168000000000	0.261874000000000	-1.12646000000000e-06	-0.000359830000000000	0.00926142000000000	0.000166035000000000	-1.01879000000000e-05	1.37410000000000e-05	5.60837000000000e-08	0.00107353000000000
1.98500000000000	0.216232000000000	-8.43557000000000e-07	-0.000294758000000000	0.00643224000000000	9.37177000000000e-05	-6.19462000000000e-06	7.29803000000000e-06	1.41944000000000e-08	0.000833547000000000
1.98833000000000	0.169221000000000	-1.06138000000000e-06	-0.000229566000000000	0.00398025000000000	4.43946000000000e-05	-3.27753000000000e-06	3.19651000000000e-06	-9.80571000000000e-09	0.000587531000000000
1.99167000000000	0.121385000000000	-1.26849000000000e-06	-0.000164285000000000	0.00205681000000000	1.58897000000000e-05	-1.42270000000000e-06	1.01305000000000e-06	-1.38046000000000e-08	0.000351538000000000
1.99500000000000	0.0730411000000000	-9.60430000000000e-07	-9.87455000000000e-05	0.000745930000000000	3.28918000000000e-06	-4.30812000000000e-07	1.70360000000000e-07	-7.14387000000000e-09	0.000150180000000000
1.99833000000000	0.0244072000000000	-3.40392000000000e-07	-3.29487000000000e-05	8.37445000000000e-05	8.81142000000000e-08	-4.09764000000000e-08	3.11983000000000e-09	-9.57570000000000e-10	2.09347000000000e-05
2	0	0	0	0	0	0	0	0	0
