% %
% data is not non-dimensionalized
% y,	<u>,	<v>,	<w>,	<uu>,	<uv>,	<uw>,	<vv>,	<vw>,	<ww>
%
0	0	0	0	0	0	0	0	0	0
0.00166660000000000	0.0352808000000000	-4.34590000000000e-06	1.89817000000000e-05	0.000179121000000000	-2.64052000000000e-07	-3.25420000000000e-08	2.42045000000000e-09	-1.19572000000000e-09	1.49548000000000e-05
0.00499980000000000	0.0606885000000000	1.39225000000000e-06	3.50391000000000e-05	0.000334198000000000	-1.08213000000000e-06	-2.97193000000000e-07	2.68578000000000e-08	4.88100000000000e-10	4.01102000000000e-05
0.00833300000000000	0.0906295000000000	2.14415000000000e-08	5.29374000000000e-05	0.000657779000000000	-3.61893000000000e-06	-6.47722000000000e-07	1.34926000000000e-07	-2.44938000000000e-10	8.19307000000000e-05
0.0116662000000000	0.119955000000000	8.54793000000000e-08	7.04114000000000e-05	0.00106880000000000	-8.11690000000000e-06	-1.05252000000000e-06	3.82372000000000e-07	-1.18269000000000e-09	0.000132536000000000
0.0149994000000000	0.149237000000000	1.29554000000000e-07	8.77768000000000e-05	0.00158176000000000	-1.53873000000000e-05	-1.47645000000000e-06	8.50743000000000e-07	-2.68506000000000e-09	0.000190244000000000
0.0183206000000000	0.178406000000000	1.14530000000000e-07	0.000105073000000000	0.00219413000000000	-2.61527000000000e-05	-1.90325000000000e-06	1.62844000000000e-06	-4.41084000000000e-09	0.000253055000000000
0.0220491000000000	0.210234000000000	2.59279000000000e-08	0.000124043000000000	0.00297076000000000	-4.27219000000000e-05	-2.38060000000000e-06	2.95149000000000e-06	-5.31296000000000e-09	0.000326272000000000
0.0267225000000000	0.247586000000000	3.16610000000000e-07	0.000146626000000000	0.00401056000000000	-7.01984000000000e-05	-2.98495000000000e-06	5.38523000000000e-06	-9.62939000000000e-10	0.000415960000000000
0.0325806000000000	0.291420000000000	4.77990000000000e-07	0.000173895000000000	0.00539976000000000	-0.000116183000000000	-3.82851000000000e-06	9.92799000000000e-06	2.14434000000000e-08	0.000524001000000000
0.0399233000000000	0.342522000000000	8.18697000000000e-07	0.000207581000000000	0.00722508000000000	-0.000191802000000000	-5.17566000000000e-06	1.82720000000000e-05	9.99616000000000e-08	0.000651525000000000
0.0491272000000000	0.401582000000000	1.49394000000000e-06	0.000251186000000000	0.00955975000000000	-0.000312960000000000	-7.54456000000000e-06	3.32977000000000e-05	3.30943000000000e-07	0.000799973000000000
0.0606638000000000	0.468944000000000	2.61325000000000e-06	0.000312648000000000	0.0124090000000000	-0.000499241000000000	-1.16500000000000e-05	5.97166000000000e-05	9.28216000000000e-07	0.000972674000000000
0.0751244000000000	0.544234000000000	2.35667000000000e-06	0.000410953000000000	0.0156171000000000	-0.000768240000000000	-1.77713000000000e-05	0.000105006000000000	2.24372000000000e-06	0.00117733000000000
0.0932501000000000	0.625837000000000	-5.70696000000000e-06	0.000587957000000000	0.0187656000000000	-0.00112198000000000	-2.50880000000000e-05	0.000180659000000000	4.57760000000000e-06	0.00142696000000000
0.115970000000000	0.710461000000000	-2.92476000000000e-05	0.000921016000000000	0.0211976000000000	-0.00152907000000000	-3.13550000000000e-05	0.000303091000000000	7.76398000000000e-06	0.00173467000000000
0.144448000000000	0.793380000000000	-6.02600000000000e-05	0.00151888000000000	0.0222732000000000	-0.00192312000000000	-3.09453000000000e-05	0.000493004000000000	1.01271000000000e-05	0.00209694000000000
0.180144000000000	0.869386000000000	-9.91170000000000e-05	0.00242440000000000	0.0217248000000000	-0.00222839000000000	-2.13862000000000e-05	0.000766071000000000	8.08950000000000e-06	0.00246976000000000
0.220000000000000	0.929232000000000	-0.000105398000000000	0.00329752000000000	0.0198373000000000	-0.00240455000000000	-4.28320000000000e-06	0.00107990000000000	8.96476000000000e-07	0.00272740000000000
0.260000000000000	0.973635000000000	-7.18045000000000e-05	0.00371096000000000	0.0176107000000000	-0.00246910000000000	1.12983000000000e-05	0.00137409000000000	-7.91034000000000e-06	0.00288904000000000
0.300000000000000	1.00717000000000	-4.16236000000000e-05	0.00352690000000000	0.0154710000000000	-0.00245915000000000	3.14551000000000e-05	0.00162191000000000	-1.65066000000000e-05	0.00298084000000000
0.340000000000000	1.03320000000000	-2.29626000000000e-05	0.00285737000000000	0.0135787000000000	-0.00240623000000000	5.02408000000000e-05	0.00181439000000000	-2.31233000000000e-05	0.00301666000000000
0.380000000000000	1.05395000000000	-4.91098000000000e-06	0.00191503000000000	0.0119420000000000	-0.00231890000000000	5.19798000000000e-05	0.00194949000000000	-2.62673000000000e-05	0.00301966000000000
0.420000000000000	1.07114000000000	-2.85770000000000e-06	0.00101275000000000	0.0105332000000000	-0.00220661000000000	4.18216000000000e-05	0.00203157000000000	-2.52308000000000e-05	0.00298613000000000
0.460000000000000	1.08584000000000	-2.87065000000000e-06	0.000339426000000000	0.00933113000000000	-0.00207882000000000	3.85973000000000e-05	0.00206869000000000	-2.19105000000000e-05	0.00290086000000000
0.500000000000000	1.09872000000000	7.18143000000000e-06	-9.17578000000000e-05	0.00830522000000000	-0.00194071000000000	4.41026000000000e-05	0.00206629000000000	-1.85184000000000e-05	0.00277724000000000
0.540000000000000	1.11020000000000	9.48396000000000e-06	-0.000310027000000000	0.00742442000000000	-0.00179580000000000	4.16044000000000e-05	0.00203092000000000	-1.55045000000000e-05	0.00263046000000000
0.580000000000000	1.12059000000000	7.77506000000000e-06	-0.000389247000000000	0.00665048000000000	-0.00164608000000000	3.31944000000000e-05	0.00197280000000000	-1.28439000000000e-05	0.00248133000000000
0.620000000000000	1.13002000000000	9.70272000000000e-06	-0.000377425000000000	0.00597471000000000	-0.00149426000000000	2.80896000000000e-05	0.00190054000000000	-1.05348000000000e-05	0.00234011000000000
0.660000000000000	1.13843000000000	2.46455000000000e-06	-0.000304963000000000	0.00538926000000000	-0.00134205000000000	2.00985000000000e-05	0.00182209000000000	-9.30381000000000e-06	0.00218944000000000
0.700000000000000	1.14573000000000	-1.02210000000000e-06	-0.000250948000000000	0.00487382000000000	-0.00118730000000000	1.15037000000000e-05	0.00174318000000000	-8.64253000000000e-06	0.00202136000000000
0.740000000000000	1.15199000000000	5.57934000000000e-08	-0.000284276000000000	0.00442057000000000	-0.00102997000000000	1.24946000000000e-05	0.00166696000000000	-8.09442000000000e-06	0.00185220000000000
0.780000000000000	1.15741000000000	5.67593000000000e-07	-0.000428371000000000	0.00402381000000000	-0.000870976000000000	1.58073000000000e-05	0.00159528000000000	-7.73619000000000e-06	0.00170172000000000
0.820000000000000	1.16209000000000	4.94607000000000e-06	-0.000665706000000000	0.00368846000000000	-0.000710910000000000	1.28772000000000e-05	0.00153039000000000	-7.51708000000000e-06	0.00157864000000000
0.860000000000000	1.16603000000000	6.46071000000000e-06	-0.000959009000000000	0.00342711000000000	-0.000550512000000000	7.06858000000000e-06	0.00147501000000000	-7.24869000000000e-06	0.00148696000000000
0.900000000000000	1.16923000000000	1.89347000000000e-06	-0.00126348000000000	0.00323819000000000	-0.000390094000000000	4.23575000000000e-06	0.00143257000000000	-6.31510000000000e-06	0.00142659000000000
0.940000000000000	1.17164000000000	-1.95755000000000e-06	-0.00153731000000000	0.00311666000000000	-0.000229596000000000	8.09529000000000e-06	0.00140502000000000	-5.04705000000000e-06	0.00139261000000000
0.980000000000000	1.17313000000000	-2.57198000000000e-06	-0.00175363000000000	0.00306434000000000	-6.94931000000000e-05	1.92518000000000e-05	0.00139278000000000	-3.97640000000000e-06	0.00138197000000000
1.02000000000000	1.17357000000000	-1.44800000000000e-06	-0.00193063000000000	0.00308666000000000	9.04265000000000e-05	3.46911000000000e-05	0.00139525000000000	-3.42038000000000e-06	0.00139408000000000
1.06000000000000	1.17290000000000	-1.92318000000000e-06	-0.00209190000000000	0.00318322000000000	0.000250563000000000	4.84673000000000e-05	0.00141180000000000	-3.31065000000000e-06	0.00142557000000000
1.10000000000000	1.17115000000000	-7.27510000000000e-07	-0.00224285000000000	0.00334714000000000	0.000410321000000000	5.84921000000000e-05	0.00144149000000000	-3.49938000000000e-06	0.00147304000000000
1.14000000000000	1.16837000000000	-1.06806000000000e-06	-0.00238069000000000	0.00357031000000000	0.000569363000000000	6.31362000000000e-05	0.00148356000000000	-4.16062000000000e-06	0.00153540000000000
1.18000000000000	1.16460000000000	-2.53605000000000e-06	-0.00251974000000000	0.00384664000000000	0.000728578000000000	6.04791000000000e-05	0.00153697000000000	-5.08481000000000e-06	0.00161649000000000
1.22000000000000	1.15991000000000	-8.42468000000000e-07	-0.00267186000000000	0.00417850000000000	0.000888401000000000	5.43814000000000e-05	0.00159950000000000	-5.60112000000000e-06	0.00171997000000000
1.26000000000000	1.15433000000000	9.95125000000000e-07	-0.00280131000000000	0.00457028000000000	0.00104854000000000	4.61820000000000e-05	0.00166864000000000	-5.61633000000000e-06	0.00184432000000000
1.30000000000000	1.14787000000000	-6.91753000000000e-07	-0.00286009000000000	0.00503131000000000	0.00120770000000000	3.28401000000000e-05	0.00174170000000000	-5.71671000000000e-06	0.00198273000000000
1.34000000000000	1.14053000000000	1.44274000000000e-06	-0.00283333000000000	0.00556357000000000	0.00136562000000000	1.71541000000000e-05	0.00181634000000000	-5.76787000000000e-06	0.00213215000000000
1.38000000000000	1.13225000000000	-1.43209000000000e-06	-0.00276108000000000	0.00616382000000000	0.00152224000000000	-1.31903000000000e-06	0.00189054000000000	-6.71632000000000e-06	0.00229495000000000
1.42000000000000	1.12293000000000	-5.26448000000000e-06	-0.00271753000000000	0.00682947000000000	0.00167572000000000	-2.01979000000000e-05	0.00196236000000000	-8.31304000000000e-06	0.00246425000000000
1.46000000000000	1.11236000000000	-6.38088000000000e-06	-0.00269028000000000	0.00755610000000000	0.00182393000000000	-3.42295000000000e-05	0.00202665000000000	-8.92227000000000e-06	0.00263045000000000
1.50000000000000	1.10026000000000	-1.06782000000000e-05	-0.00260129000000000	0.00835978000000000	0.00196554000000000	-3.94374000000000e-05	0.00207757000000000	-8.63022000000000e-06	0.00279015000000000
1.54000000000000	1.08625000000000	-1.04700000000000e-05	-0.00239896000000000	0.00927380000000000	0.00209914000000000	-3.00208000000000e-05	0.00210334000000000	-7.37942000000000e-06	0.00295417000000000
1.58000000000000	1.06994000000000	-3.30720000000000e-06	-0.00211063000000000	0.0103442000000000	0.00222269000000000	1.39194000000000e-07	0.00209101000000000	-6.42186000000000e-06	0.00311606000000000
1.62000000000000	1.05087000000000	1.36282000000000e-05	-0.00178965000000000	0.0116069000000000	0.00233130000000000	4.08500000000000e-05	0.00202643000000000	-5.51631000000000e-06	0.00324419000000000
1.66000000000000	1.02838000000000	2.72144000000000e-05	-0.00147441000000000	0.0130858000000000	0.00241866000000000	8.12401000000000e-05	0.00190217000000000	-3.74817000000000e-06	0.00329170000000000
1.70000000000000	1.00134000000000	3.63644000000000e-05	-0.00111717000000000	0.0148002000000000	0.00247383000000000	0.000119991000000000	0.00171522000000000	-3.30276000000000e-07	0.00322213000000000
1.74000000000000	0.967786000000000	6.29737000000000e-05	-0.000629511000000000	0.0167498000000000	0.00248498000000000	0.000146342000000000	0.00146705000000000	2.68449000000000e-06	0.00305455000000000
1.78000000000000	0.924294000000000	0.000115788000000000	-8.28752000000000e-05	0.0188627000000000	0.00242457000000000	0.000168295000000000	0.00116190000000000	4.28854000000000e-06	0.00283676000000000
1.81986000000000	0.866089000000000	0.000118754000000000	0.000294936000000000	0.0208336000000000	0.00225475000000000	0.000191733000000000	0.000826176000000000	3.34076000000000e-06	0.00257659000000000
1.85555000000000	0.791744000000000	6.75783000000000e-05	0.000377696000000000	0.0216647000000000	0.00195442000000000	0.000193119000000000	0.000530803000000000	5.51365000000000e-07	0.00223528000000000
1.88403000000000	0.709988000000000	3.02185000000000e-05	0.000288678000000000	0.0208888000000000	0.00156148000000000	0.000171287000000000	0.000325706000000000	-1.92525000000000e-06	0.00188760000000000
1.90675000000000	0.626052000000000	5.49348000000000e-06	0.000170947000000000	0.0186690000000000	0.00114974000000000	0.000139813000000000	0.000193999000000000	-2.88801000000000e-06	0.00157165000000000
1.92488000000000	0.544783000000000	-2.56142000000000e-06	8.28946000000000e-05	0.0156312000000000	0.000788831000000000	0.000107792000000000	0.000112762000000000	-2.62851000000000e-06	0.00130422000000000
1.93934000000000	0.469619000000000	-2.73960000000000e-06	3.03630000000000e-05	0.0124654000000000	0.000513190000000000	8.09706000000000e-05	6.41555000000000e-05	-1.95146000000000e-06	0.00107962000000000
1.95087000000000	0.402275000000000	-1.57729000000000e-06	2.87000000000000e-06	0.00962456000000000	0.000321884000000000	6.05929000000000e-05	3.58041000000000e-05	-1.30557000000000e-06	0.000887948000000000
1.96008000000000	0.343178000000000	-8.74134000000000e-07	-1.01106000000000e-05	0.00728449000000000	0.000197295000000000	4.53674000000000e-05	1.96727000000000e-05	-8.30461000000000e-07	0.000722787000000000
1.96742000000000	0.292018000000000	-5.10172000000000e-07	-1.52624000000000e-05	0.00544969000000000	0.000119487000000000	3.39172000000000e-05	1.07052000000000e-05	-5.15316000000000e-07	0.000581031000000000
1.97328000000000	0.248119000000000	-3.37064000000000e-07	-1.63718000000000e-05	0.00405092000000000	7.21645000000000e-05	2.52868000000000e-05	5.81584000000000e-06	-3.16149000000000e-07	0.000461090000000000
1.97795000000000	0.210703000000000	-3.55426000000000e-08	-1.55337000000000e-05	0.00300284000000000	4.38974000000000e-05	1.88063000000000e-05	3.19240000000000e-06	-1.93878000000000e-07	0.000361620000000000
1.98168000000000	0.178816000000000	-1.21611000000000e-07	-1.38995000000000e-05	0.00221943000000000	2.68589000000000e-05	1.39389000000000e-05	1.76393000000000e-06	-1.18881000000000e-07	0.000280461000000000
1.98500000000000	0.149591000000000	-1.33641000000000e-07	-1.18105000000000e-05	0.00160138000000000	1.57958000000000e-05	1.00609000000000e-05	9.22997000000000e-07	-6.99713000000000e-08	0.000210860000000000
1.98833000000000	0.120252000000000	-8.84551000000000e-08	-9.15327000000000e-06	0.00108336000000000	8.33065000000000e-06	6.76730000000000e-06	4.15678000000000e-07	-3.68249000000000e-08	0.000146929000000000
1.99167000000000	0.0908696000000000	-2.29713000000000e-08	-6.02288000000000e-06	0.000668028000000000	3.71665000000000e-06	4.09575000000000e-06	1.47118000000000e-07	-1.65057000000000e-08	9.08707000000000e-05
1.99500000000000	0.0608669000000000	-1.43502000000000e-06	-2.70700000000000e-06	0.000340424000000000	1.11055000000000e-06	2.00993000000000e-06	2.93688000000000e-08	-4.99607000000000e-09	4.45293000000000e-05
1.99833000000000	0.0354275000000000	4.45315000000000e-06	2.09866000000000e-06	0.000184092000000000	2.76988000000000e-07	9.12668000000000e-07	2.68044000000000e-09	-5.39694000000000e-10	1.66828000000000e-05
2	0	0	0	0	0	0	0	0	0
