% %
% data is not non-dimensionalized
% y,	<u>,	<v>,	<w>,	<uu>,	<uv>,	<uw>,	<vv>,	<vw>,	<ww>,	<nuSGS>
%
0	0	0	0	0	0	0	0	0	0	0
0.00166660000000000	0.0243384000000000	3.35688000000000e-07	1.17038000000000e-05	8.41668000000000e-05	-8.92142000000000e-08	-9.40513000000000e-08	3.08003000000000e-09	-3.06266000000000e-10	2.07573000000000e-05	5.50323000000000e-10
0.00499980000000000	0.0728343000000000	9.47122000000000e-07	3.50706000000000e-05	0.000749725000000000	-3.30870000000000e-06	-6.25089000000000e-07	1.68271000000000e-07	-6.34373000000000e-09	0.000149032000000000	5.71658000000000e-09
0.00833300000000000	0.121041000000000	1.25155000000000e-06	5.82238000000000e-05	0.00206740000000000	-1.59497000000000e-05	-1.25082000000000e-06	1.00076000000000e-06	-2.61668000000000e-08	0.000349136000000000	1.85064000000000e-08
0.0116662000000000	0.168741000000000	1.04896000000000e-06	8.08740000000000e-05	0.00400135000000000	-4.45012000000000e-05	-1.59582000000000e-06	3.15815000000000e-06	-6.61441000000000e-08	0.000584041000000000	3.74645000000000e-08
0.0149994000000000	0.215621000000000	8.36361000000000e-07	0.000102674000000000	0.00646811000000000	-9.38559000000000e-05	-1.41460000000000e-06	7.21190000000000e-06	-1.27418000000000e-07	0.000829417000000000	6.06570000000000e-08
0.0183206000000000	0.261140000000000	1.11992000000000e-06	0.000123230000000000	0.00931661000000000	-0.000166177000000000	-6.36769000000000e-07	1.35827000000000e-05	-2.05068000000000e-07	0.00106937000000000	8.86176000000000e-08
0.0220491000000000	0.310472000000000	1.74916000000000e-06	0.000144782000000000	0.0127869000000000	-0.000274178000000000	8.26513000000000e-07	2.39345000000000e-05	-3.03213000000000e-07	0.00132810000000000	1.52122000000000e-07
0.0267225000000000	0.368815000000000	1.67787000000000e-06	0.000169399000000000	0.0171188000000000	-0.000443732000000000	3.16678000000000e-06	4.23336000000000e-05	-4.15457000000000e-07	0.00162624000000000	2.90007000000000e-07
0.0325806000000000	0.435415000000000	-2.11978000000000e-06	0.000197553000000000	0.0218680000000000	-0.000689090000000000	6.11146000000000e-06	7.45483000000000e-05	-4.88210000000000e-07	0.00195861000000000	6.62018000000000e-07
0.0399233000000000	0.507731000000000	-1.39019000000000e-05	0.000232219000000000	0.0260546000000000	-0.00100356000000000	8.88277000000000e-06	0.000129485000000000	-4.20897000000000e-07	0.00231498000000000	1.77536000000000e-06
0.0491272000000000	0.581528000000000	-3.36518000000000e-05	0.000281448000000000	0.0284916000000000	-0.00134713000000000	1.03187000000000e-05	0.000219618000000000	-1.39559000000000e-07	0.00267397000000000	4.58571000000000e-06
0.0606638000000000	0.652128000000000	-5.46422000000000e-05	0.000358918000000000	0.0285219000000000	-0.00165988000000000	9.14034000000000e-06	0.000360164000000000	2.97640000000000e-07	0.00300141000000000	9.76737000000000e-06
0.0751244000000000	0.716195000000000	-7.33575000000000e-05	0.000481882000000000	0.0264282000000000	-0.00189574000000000	5.00717000000000e-06	0.000565387000000000	8.66084000000000e-07	0.00326430000000000	1.70419000000000e-05
0.0932501000000000	0.772602000000000	-7.67120000000000e-05	0.000649845000000000	0.0230748000000000	-0.00204176000000000	9.11656000000000e-07	0.000840603000000000	1.37363000000000e-06	0.00344146000000000	2.58234000000000e-05
0.115970000000000	0.821886000000000	-7.31197000000000e-05	0.000819855000000000	0.0193302000000000	-0.00211018000000000	-2.36268000000000e-07	0.00116882000000000	1.12599000000000e-06	0.00351947000000000	3.61494000000000e-05
0.144448000000000	0.865208000000000	-3.40344000000000e-06	0.000933195000000000	0.0157449000000000	-0.00213079000000000	-3.27887000000000e-06	0.00150218000000000	4.93240000000000e-07	0.00349331000000000	4.80046000000000e-05
0.180144000000000	0.903704000000000	2.04314000000000e-05	0.000969996000000000	0.0126768000000000	-0.00211552000000000	-7.09465000000000e-06	0.00177028000000000	-6.82299000000000e-07	0.00339213000000000	6.00338000000000e-05
0.220000000000000	0.935753000000000	-9.46401000000000e-06	0.000871605000000000	0.0104227000000000	-0.00206466000000000	-1.02799000000000e-05	0.00191231000000000	-1.56230000000000e-06	0.00322659000000000	6.06264000000000e-05
0.260000000000000	0.961985000000000	3.01979000000000e-05	0.000546321000000000	0.00888893000000000	-0.00198646000000000	-1.01748000000000e-05	0.00194339000000000	-3.73275000000000e-06	0.00307420000000000	5.87650000000000e-05
0.300000000000000	0.984419000000000	-9.60155000000000e-06	0.000202938000000000	0.00775057000000000	-0.00189966000000000	-1.98041000000000e-05	0.00192964000000000	-3.07972000000000e-06	0.00292611000000000	5.65082000000000e-05
0.340000000000000	1.00409000000000	1.28779000000000e-05	-0.000136998000000000	0.00688738000000000	-0.00180450000000000	-2.35378000000000e-05	0.00188084000000000	-3.15628000000000e-06	0.00275854000000000	5.39947000000000e-05
0.380000000000000	1.02154000000000	-4.30561000000000e-06	-0.000553549000000000	0.00618726000000000	-0.00170373000000000	-1.38527000000000e-05	0.00181633000000000	-3.06905000000000e-06	0.00257615000000000	5.13968000000000e-05
0.420000000000000	1.03733000000000	-3.53750000000000e-06	-0.000969420000000000	0.00558421000000000	-0.00159855000000000	-5.41407000000000e-06	0.00174366000000000	-3.14870000000000e-06	0.00239900000000000	4.89405000000000e-05
0.460000000000000	1.05168000000000	-2.14885000000000e-06	-0.00129874000000000	0.00506189000000000	-0.00149173000000000	-9.86514000000000e-07	0.00166500000000000	-2.79296000000000e-06	0.00223249000000000	4.66539000000000e-05
0.500000000000000	1.06485000000000	-1.73986000000000e-06	-0.00149129000000000	0.00458332000000000	-0.00138303000000000	4.87566000000000e-07	0.00158188000000000	-1.77955000000000e-06	0.00207545000000000	4.42625000000000e-05
0.540000000000000	1.07700000000000	3.94296000000000e-06	-0.00159556000000000	0.00414861000000000	-0.00127311000000000	4.14901000000000e-06	0.00149459000000000	-1.47741000000000e-06	0.00191389000000000	4.17815000000000e-05
0.580000000000000	1.08810000000000	-6.50046000000000e-06	-0.00166886000000000	0.00376473000000000	-0.00116317000000000	1.07285000000000e-05	0.00140869000000000	-1.07277000000000e-06	0.00174889000000000	3.95099000000000e-05
0.620000000000000	1.09824000000000	-3.56495000000000e-06	-0.00172230000000000	0.00341201000000000	-0.00105208000000000	1.56369000000000e-05	0.00132652000000000	-9.91580000000000e-07	0.00158798000000000	3.73740000000000e-05
0.660000000000000	1.10751000000000	-4.77855000000000e-06	-0.00174122000000000	0.00308365000000000	-0.000940889000000000	1.37619000000000e-05	0.00124739000000000	-4.57044000000000e-07	0.00144052000000000	3.53254000000000e-05
0.700000000000000	1.11587000000000	2.30899000000000e-06	-0.00168514000000000	0.00277604000000000	-0.000829543000000000	9.49876000000000e-06	0.00117053000000000	6.12511000000000e-08	0.00130936000000000	3.33638000000000e-05
0.740000000000000	1.12335000000000	-1.03035000000000e-06	-0.00164468000000000	0.00249353000000000	-0.000717775000000000	7.30261000000000e-06	0.00109760000000000	-4.19541000000000e-07	0.00119016000000000	3.14815000000000e-05
0.780000000000000	1.12990000000000	1.06969000000000e-06	-0.00164349000000000	0.00224392000000000	-0.000606144000000000	4.57155000000000e-06	0.00103107000000000	-5.83202000000000e-07	0.00108405000000000	2.97013000000000e-05
0.820000000000000	1.13547000000000	-1.37035000000000e-06	-0.00163755000000000	0.00202914000000000	-0.000494604000000000	3.40324000000000e-06	0.000972910000000000	-6.70261000000000e-07	0.000989978000000000	2.81434000000000e-05
0.860000000000000	1.14001000000000	-9.45406000000000e-07	-0.00159255000000000	0.00185091000000000	-0.000383253000000000	5.08064000000000e-06	0.000925235000000000	-5.22740000000000e-07	0.000908072000000000	2.69104000000000e-05
0.900000000000000	1.14341000000000	-8.01127000000000e-07	-0.00147820000000000	0.00171688000000000	-0.000272220000000000	7.08731000000000e-06	0.000888667000000000	-1.46626000000000e-07	0.000846550000000000	2.59950000000000e-05
0.940000000000000	1.14565000000000	-1.90178000000000e-08	-0.00128434000000000	0.00162923000000000	-0.000160992000000000	8.62388000000000e-06	0.000864022000000000	2.12957000000000e-07	0.000810241000000000	2.53761000000000e-05
0.980000000000000	1.14677000000000	-6.25941000000000e-07	-0.00104680000000000	0.00159089000000000	-4.96265000000000e-05	9.49309000000000e-06	0.000851587000000000	2.52028000000000e-07	0.000796808000000000	2.50551000000000e-05
1.02000000000000	1.14679000000000	-2.42724000000000e-06	-0.000809199000000000	0.00160308000000000	6.15099000000000e-05	8.38500000000000e-06	0.000851933000000000	-9.99276000000000e-09	0.000802163000000000	2.50919000000000e-05
1.06000000000000	1.14570000000000	3.46007000000000e-07	-0.000606018000000000	0.00166371000000000	0.000172336000000000	7.22096000000000e-06	0.000864136000000000	-3.12463000000000e-07	0.000826387000000000	2.54425000000000e-05
1.10000000000000	1.14353000000000	2.09090000000000e-06	-0.000465758000000000	0.00177131000000000	0.000283333000000000	7.03806000000000e-06	0.000887141000000000	-8.75476000000000e-07	0.000870877000000000	2.60625000000000e-05
1.14000000000000	1.14026000000000	1.14847000000000e-06	-0.000404688000000000	0.00192361000000000	0.000394182000000000	6.75333000000000e-06	0.000921201000000000	-1.48151000000000e-06	0.000935157000000000	2.69914000000000e-05
1.18000000000000	1.13590000000000	1.08363000000000e-06	-0.000406041000000000	0.00211928000000000	0.000504885000000000	4.45427000000000e-06	0.000966159000000000	-1.79609000000000e-06	0.00101673000000000	2.81939000000000e-05
1.22000000000000	1.13050000000000	2.42240000000000e-06	-0.000454354000000000	0.00235211000000000	0.000616024000000000	-1.72231000000000e-06	0.00102148000000000	-2.20238000000000e-06	0.00111298000000000	2.95894000000000e-05
1.26000000000000	1.12409000000000	1.30443000000000e-06	-0.000551545000000000	0.00261202000000000	0.000726590000000000	-6.40301000000000e-06	0.00108607000000000	-2.42594000000000e-06	0.00122347000000000	3.12336000000000e-05
1.30000000000000	1.11670000000000	3.27694000000000e-07	-0.000677762000000000	0.00289603000000000	0.000837018000000000	-7.30096000000000e-06	0.00115971000000000	-2.47497000000000e-06	0.00134686000000000	3.31357000000000e-05
1.34000000000000	1.10841000000000	-1.68583000000000e-06	-0.000781528000000000	0.00320602000000000	0.000947907000000000	-1.14933000000000e-05	0.00124064000000000	-2.26695000000000e-06	0.00148587000000000	3.52279000000000e-05
1.38000000000000	1.09926000000000	-2.57692000000000e-06	-0.000863691000000000	0.00354022000000000	0.00105836000000000	-1.81928000000000e-05	0.00132667000000000	-2.42452000000000e-06	0.00163815000000000	3.75058000000000e-05
1.42000000000000	1.08926000000000	6.23596000000000e-06	-0.000977484000000000	0.00390898000000000	0.00116793000000000	-2.40586000000000e-05	0.00141357000000000	-2.07555000000000e-06	0.00179337000000000	3.96792000000000e-05
1.46000000000000	1.07840000000000	9.13936000000000e-07	-0.00114790000000000	0.00430712000000000	0.00127826000000000	-2.54105000000000e-05	0.00150079000000000	-1.83223000000000e-06	0.00195128000000000	4.18584000000000e-05
1.50000000000000	1.06670000000000	4.21035000000000e-06	-0.00134863000000000	0.00473115000000000	0.00138723000000000	-1.42782000000000e-05	0.00158661000000000	-9.03882000000000e-07	0.00211262000000000	4.41192000000000e-05
1.54000000000000	1.05403000000000	-3.71930000000000e-07	-0.00149376000000000	0.00518751000000000	0.00149534000000000	-1.07574000000000e-06	0.00167144000000000	2.98838000000000e-07	0.00226995000000000	4.65296000000000e-05
1.58000000000000	1.04024000000000	-8.41753000000000e-07	-0.00158722000000000	0.00568828000000000	0.00160097000000000	3.77713000000000e-06	0.00175018000000000	6.08829000000000e-07	0.00242291000000000	4.89413000000000e-05
1.62000000000000	1.02487000000000	7.51674000000000e-06	-0.00166708000000000	0.00627138000000000	0.00170384000000000	7.06402000000000e-06	0.00182272000000000	1.47552000000000e-06	0.00258310000000000	5.12694000000000e-05
1.66000000000000	1.00761000000000	-1.11390000000000e-05	-0.00168589000000000	0.00697506000000000	0.00180401000000000	8.62140000000000e-06	0.00188330000000000	1.80638000000000e-06	0.00275068000000000	5.37470000000000e-05
1.70000000000000	0.988185000000000	5.65465000000000e-06	-0.00153996000000000	0.00785321000000000	0.00190111000000000	6.37231000000000e-06	0.00192977000000000	2.51248000000000e-06	0.00291275000000000	5.64045000000000e-05
1.74000000000000	0.965944000000000	-2.80381000000000e-05	-0.00128315000000000	0.00897988000000000	0.00198843000000000	-1.43607000000000e-06	0.00194398000000000	1.75642000000000e-06	0.00307579000000000	5.87324000000000e-05
1.78000000000000	0.939618000000000	1.53185000000000e-05	-0.000983619000000000	0.0105354000000000	0.00206761000000000	-2.24154000000000e-05	0.00190775000000000	1.11897000000000e-06	0.00324890000000000	6.05112000000000e-05
1.81986000000000	0.907432000000000	-2.38136000000000e-05	-0.000684861000000000	0.0128177000000000	0.00212057000000000	-6.66401000000000e-05	0.00176825000000000	-3.16736000000000e-07	0.00340974000000000	5.99561000000000e-05
1.85555000000000	0.868927000000000	1.56836000000000e-06	-0.000697712000000000	0.0159252000000000	0.00213991000000000	-9.05021000000000e-05	0.00150196000000000	-4.16092000000000e-06	0.00348980000000000	4.80088000000000e-05
1.88403000000000	0.825391000000000	7.11562000000000e-05	-0.000879099000000000	0.0195323000000000	0.00211596000000000	-7.20796000000000e-05	0.00117148000000000	-3.98691000000000e-06	0.00350300000000000	3.61273000000000e-05
1.90675000000000	0.775579000000000	7.72204000000000e-05	-0.00101217000000000	0.0232711000000000	0.00204625000000000	-5.25783000000000e-05	0.000844277000000000	-3.73591000000000e-06	0.00342223000000000	2.57988000000000e-05
1.92488000000000	0.718565000000000	7.41275000000000e-05	-0.00104588000000000	0.0265783000000000	0.00189941000000000	-4.95785000000000e-05	0.000568637000000000	-2.72688000000000e-06	0.00324161000000000	1.70520000000000e-05
1.93934000000000	0.654012000000000	5.51696000000000e-05	-0.000992680000000000	0.0286305000000000	0.00166453000000000	-5.70425000000000e-05	0.000362410000000000	-2.09770000000000e-06	0.00297420000000000	9.83645000000000e-06
1.95087000000000	0.583091000000000	3.37930000000000e-05	-0.000896165000000000	0.0285785000000000	0.00135193000000000	-6.30533000000000e-05	0.000221126000000000	-1.57026000000000e-06	0.00264714000000000	4.64206000000000e-06
1.96008000000000	0.509063000000000	1.40795000000000e-05	-0.000779270000000000	0.0261294000000000	0.00100742000000000	-6.23416000000000e-05	0.000130441000000000	-9.74311000000000e-07	0.00229396000000000	1.80214000000000e-06
1.96742000000000	0.436550000000000	2.20235000000000e-06	-0.000660205000000000	0.0219333000000000	0.000691813000000000	-5.50982000000000e-05	7.51254000000000e-05	-5.51851000000000e-07	0.00194436000000000	6.71974000000000e-07
1.97328000000000	0.369775000000000	-1.65281000000000e-06	-0.000552165000000000	0.0171749000000000	0.000445512000000000	-4.44376000000000e-05	4.26711000000000e-05	-3.16384000000000e-07	0.00161731000000000	2.92067000000000e-07
1.97795000000000	0.311280000000000	-1.75507000000000e-06	-0.000460407000000000	0.0128330000000000	0.000275287000000000	-3.37019000000000e-05	2.41275000000000e-05	-1.97552000000000e-07	0.00132266000000000	1.52826000000000e-07
1.98168000000000	0.261818000000000	-1.12746000000000e-06	-0.000384942000000000	0.00935296000000000	0.000166854000000000	-2.47574000000000e-05	1.36922000000000e-05	-1.35738000000000e-07	0.00106606000000000	8.89945000000000e-08
1.98500000000000	0.216181000000000	-8.42629000000000e-07	-0.000316627000000000	0.00649505000000000	9.42405000000000e-05	-1.72857000000000e-05	7.26963000000000e-06	-9.48226000000000e-08	0.000827539000000000	6.08852000000000e-08
1.98833000000000	0.169179000000000	-1.05755000000000e-06	-0.000247206000000000	0.00401893000000000	4.46836000000000e-05	-1.07795000000000e-05	3.18305000000000e-06	-5.94205000000000e-08	0.000583171000000000	3.75769000000000e-08
1.99167000000000	0.121354000000000	-1.26218000000000e-06	-0.000177088000000000	0.00207683000000000	1.60138000000000e-05	-5.64350000000000e-06	1.00846000000000e-06	-2.96955000000000e-08	0.000348875000000000	1.85469000000000e-08
1.99500000000000	0.0730223000000000	-9.54972000000000e-07	-0.000106449000000000	0.000753218000000000	3.32104000000000e-06	-2.09109000000000e-06	1.69525000000000e-07	-9.55218000000000e-09	0.000149030000000000	5.72323000000000e-09
1.99833000000000	0.0244011000000000	-3.38308000000000e-07	-3.55107000000000e-05	8.45624000000000e-05	8.93622000000000e-08	-2.44377000000000e-07	3.10270000000000e-09	-8.40091000000000e-10	2.07752000000000e-05	5.50104000000000e-10
2	0	0	0	0	0	0	0	0	0	0
